{
  "version": "0.1.BUILD_NUMBER",
  "alias": "serverless-authorizer",
  "logLevel": "info",
  
  "dynamodb": {
    "assetsTable": "production-assets",
    "filesTable": "production-files"
  },

  "encryption": {
    "kmsKeyID": "some key goes here"
  }    
}
